Stage3_allDir_allLineType_2/Stage3_allDir_allLineType_2.vcd
$date
	Mon Jan 28 23:00:35 2019
$end
$version
	ModelSim Version 10.1c
$end
$timescale
	1us
$end
$scope module Interconnect_Testbench $end
$var wire 1 $ a [0] $end
$var wire 1 % a [1] $end
$var wire 1 & a [2] $end
$var wire 1 ' a [3] $end
$var wire 1 ( a [4] $end
$var wire 1 ) a [5] $end
$var wire 1 * a [6] $end
$var wire 1 + a [7] $end
$var wire 1 , a [8] $end
$var wire 1 - a [9] $end
$var wire 1 . a [10] $end
$var wire 1 / s [0] $end
$var wire 1 0 s [1] $end
$var wire 1 1 s [2] $end
$var wire 1 2 s [3] $end
$var wire 1 3 s [4] $end
$var wire 1 4 s [5] $end
$var wire 1 5 s [6] $end
$var wire 1 6 s [7] $end
$var wire 1 7 s [8] $end
$var wire 1 8 s [9] $end
$var wire 1 9 s [10] $end
$upscope $end
$enddefinitions $end
#0
$dumpvars
1.
0-
1,
0+
1*
0)
1(
0'
1&
0%
1$
x9
x8
x7
x6
x5
x4
x3
x2
x1
x0
x/
$end
#97
09
18
07
16
05
14
03
12
01
10
0/
#99
x9
x8
x7
x6
x5
x4
x3
x2
x1
x0
x/
0.
1-
0,
1+
0*
1)
0(
1'
0&
1%
0$
#197
09
18
07
16
05
14
03
12
01
10
0/
#199
x9
x8
x7
x6
x5
x4
x3
x2
x1
x0
x/
1.
0-
1*
0)
1&
0%
#297
19
08
07
16
15
04
03
12
11
00
0/
#299
x9
x8
x7
x6
x5
x4
x3
x2
x1
x0
x/
0.
1)
1(
0'
0&
#397
09
08
07
16
15
14
13
02
01
00
0/
#399
x9
x8
x7
x6
x5
x4
x3
x2
x1
x0
x/
1.
1-
1,
0+
0*
0)
0(
#497
19
18
17
06
05
04
03
02
01
00
0/
#499
x9
x8
x7
x6
x5
x4
x3
x2
x1
x0
x/
0.
0-
0,
#500
$dumpoff
x.
x-
x,
x+
x*
x)
x(
x'
x&
x%
x$
x9
x8
x7
x6
x5
x4
x3
x2
x1
x0
x/
$end
