mul5/m11_merge1.vcd
$date
	Thu Jan 10 17:22:45 2019
$end
$version
	ModelSim Version 10.1c
$end
$timescale
	1ps
$end
$scope module _tb $end
$var wire 1 ! error $end
$var reg 1 " clk_ref $end
$var reg 1 # ce_ref $end
$var reg 1 $ sr_ref $end
$var reg 1 % rs_ref $end
$var reg 4 & ai[3:0]_ref $end
$var wire 1 ' ao[3]_ref $end
$var wire 1 ( ao[2]_ref $end
$var wire 1 ) ao[1]_ref $end
$var wire 1 * ao[0]_ref $end
$var reg 1 * clk $end
$var reg 1 + ce $end
$var reg 1 , sr $end
$var reg 1 - rs $end
$var reg 4 . ai[3:0] $end
$var wire 1 / ao[3] $end
$var wire 1 0 ao[2] $end
$var wire 1 1 ao[1] $end
$var wire 1 2 ao[0] $end
$upscope $end
$enddefinitions $end
#0
$dumpvars
0!
0"
0#
0$
0%
b0000&
0'
0(
0)
0*
0*
0+
0,
0-
b0000.
0/
00
01
02
$end
#1
1"
1*
#2
0"
0*
#3
1"
1*
#4
0"
0*
#5
1"
1*
#6
0"
0*
#7
1"
1*
#8
0"
0*
#9
1"
1*
#10
0"
0*
#11
1"
1*
#12
0"
0*
#13
1"
1*
#14
0"
0*
#15
1"
1*
#16
0"
0*
#17
1"
1*
#18
0"
0*
#19
1"
1*
#20
0"
0*
#21
1"
1*
#22
0"
0*
#23
1"
1*
#24
0"
0*
#25
1"
1*
#26
0"
0*
#27
1"
1*
#28
0"
0*
#29
1"
1*
#30
0"
0*
#31
1"
1*
#32
0"
0*
#33
1"
1*
#34
0"
0*
#35
1"
1*
#36
0"
0*
#37
1"
1*
#38
0"
0*
#39
1"
1*
#40
0"
0*
#41
1"
1*
#42
0"
0*
#43
1"
1*
#44
0"
0*
#45
1"
1*
#46
0"
0*
#47
1"
1*
#48
0"
0*
#49
1"
1*
#50
0"
0*
#51
1"
1*
#52
0"
0*
#53
1"
1*
#54
0"
0*
#55
1"
1*
#56
0"
0*
#57
1"
1*
#58
0"
0*
#59
1"
1*
#60
0"
0*
#61
1"
1*
#62
0"
0*
#63
1"
1*
#64
0"
0*
#65
1"
1*
#66
0"
0*
#67
1"
1*
#68
0"
0*
#69
1"
1*
#70
0"
0*
#71
1"
1*
#72
0"
0*
#73
1"
1*
#74
0"
0*
#75
1"
1*
#76
0"
0*
#77
1"
1*
#78
0"
0*
#79
1"
1*
#80
0"
0*
#81
1"
1*
#82
0"
0*
#83
1"
1*
#84
0"
0*
#85
1"
1*
#86
0"
0*
#87
1"
1*
#88
0"
0*
#89
1"
1*
#90
0"
0*
#91
1"
1*
#92
0"
0*
#93
1"
1*
#94
0"
0*
#95
1"
1*
#96
0"
0*
#97
1"
1*
#98
0"
0*
#99
1"
1*
#100
1!
0"
b0001&
1*
0*
b0001.
#101
1"
1*
#102
0"
0*
#103
1"
1*
#104
0"
0*
#105
1"
1*
#106
0"
0*
#107
1"
1*
#108
0"
0*
#109
1"
1*
#110
0"
0*
#111
1"
1*
#112
0"
0*
#113
1"
1*
#114
0"
0*
#115
1"
1*
#116
0"
0*
#117
1"
1*
#118
0"
0*
#119
1"
1*
#120
0"
0*
#121
1"
1*
#122
0"
0*
#123
1"
1*
#124
0"
0*
#125
1"
1*
#126
0"
0*
#127
1"
1*
#128
0"
0*
#129
1"
1*
#130
0"
0*
#131
1"
1*
#132
0"
0*
#133
1"
1*
#134
0"
0*
#135
1"
1*
#136
0"
0*
#137
1"
1*
#138
0!
0"
0*
12
#139
1"
1*
#140
0"
0*
#141
1"
1*
#142
0"
0*
#143
1"
1*
#144
0"
0*
#145
1"
1*
#146
0"
0*
#147
1"
1*
#148
0"
0*
#149
1"
1*
#150
0"
0*
#151
1"
1*
#152
0"
0*
#153
1"
1*
#154
0"
0*
#155
1"
1*
#156
0"
0*
#157
1"
1*
#158
0"
0*
#159
1"
1*
#160
0"
0*
#161
1"
1*
#162
0"
0*
#163
1"
1*
#164
0"
0*
#165
1"
1*
#166
0"
0*
#167
1"
1*
#168
0"
0*
#169
1"
1*
#170
0"
0*
#171
1"
1*
#172
0"
0*
#173
1"
1*
#174
0"
0*
#175
1"
1*
#176
0"
0*
#177
1"
1*
#178
0"
0*
#179
1"
1*
#180
0"
0*
#181
1"
1*
#182
0"
0*
#183
1"
1*
#184
0"
0*
#185
1"
1*
#186
0"
0*
#187
1"
1*
#188
0"
0*
#189
1"
1*
#190
0"
0*
#191
1"
1*
#192
0"
0*
#193
1"
1*
#194
0"
0*
#195
1"
1*
#196
0"
0*
#197
1"
1*
#198
0"
0*
#199
1"
1*
#200
1!
0"
b0010&
1)
0*
0*
b0010.
#201
1"
1*
#202
0"
0*
#203
1"
1*
#204
0"
0*
#205
1"
1*
#206
0"
0*
#207
1"
1*
#208
0"
0*
#209
1"
1*
#210
0"
0*
#211
1"
1*
#212
0"
0*
#213
1"
1*
#214
0"
0*
#215
1"
1*
#216
0"
0*
#217
1"
1*
#218
0"
0*
#219
1"
1*
#220
0"
0*
#221
1"
1*
#222
0"
0*
#223
1"
1*
#224
0"
0*
#225
1"
1*
#226
0"
0*
#227
1"
1*
#228
0"
0*
#229
1"
1*
#230
0"
0*
#231
1"
1*
#232
0"
0*
#233
1"
1*
#234
0"
0*
#235
1"
1*
#236
0"
0*
#237
1"
1*
#238
0"
0*
02
#239
1"
1*
#240
0"
0*
#241
1"
1*
#242
0"
0*
#243
1"
1*
#244
0"
0*
#245
1"
1*
#246
0"
0*
#247
1"
1*
#248
0"
0*
#249
1"
1*
#250
0"
0*
#251
1"
1*
#252
0"
0*
#253
1"
1*
#254
0"
0*
#255
1"
1*
#256
0"
0*
#257
1"
1*
#258
0"
0*
#259
1"
1*
#260
0"
0*
#261
1"
1*
#262
0"
0*
#263
1"
1*
#264
0"
0*
#265
1"
1*
#266
0"
0*
#267
1"
1*
#268
0"
0*
#269
1"
1*
#270
0"
0*
#271
1"
1*
#272
0"
0*
#273
1"
1*
#274
0"
0*
#275
1"
1*
#276
0"
0*
#277
1"
1*
#278
0"
0*
#279
1"
1*
#280
0"
0*
#281
1"
1*
#282
0"
0*
#283
1"
1*
#284
0"
0*
#285
0!
1"
1*
11
#286
0"
0*
#287
1"
1*
#288
0"
0*
#289
1"
1*
#290
0"
0*
#291
1"
1*
#292
0"
0*
#293
1"
1*
#294
0"
0*
#295
1"
1*
#296
0"
0*
#297
1"
1*
#298
0"
0*
#299
1"
1*
#300
1!
0"
b0011&
1*
0*
b0011.
#301
1"
1*
#302
0"
0*
#303
1"
1*
#304
0"
0*
#305
1"
1*
#306
0"
0*
#307
1"
1*
#308
0"
0*
#309
1"
1*
#310
0"
0*
#311
1"
1*
#312
0"
0*
#313
1"
1*
#314
0"
0*
#315
1"
1*
#316
0"
0*
#317
1"
1*
#318
0"
0*
#319
1"
1*
#320
0"
0*
#321
1"
1*
#322
0"
0*
#323
1"
1*
#324
0"
0*
#325
1"
1*
#326
0"
0*
#327
1"
1*
#328
0"
0*
#329
1"
1*
#330
0"
0*
#331
1"
1*
#332
0"
0*
#333
1"
1*
#334
0"
0*
#335
1"
1*
#336
0"
0*
#337
1"
1*
#338
0!
0"
0*
12
