mul5/m9.vcd
$date
	Sat Dec 29 17:24:56 2018
$end
$version
	ModelSim Version 10.1c
$end
$timescale
	1ps
$end
$scope module test_tb $end
$var reg 1 ! clk $end
$var reg 1 " ce $end
$var reg 1 # sr $end
$var reg 1 $ rs $end
$var reg 4 % ai $end
$var wire 1 & ao[3] $end
$var wire 1 ' ao[2] $end
$var wire 1 ( ao[1] $end
$var wire 1 ) ao[0] $end
$upscope $end
$enddefinitions $end
#0
$dumpvars
0!
0"
0#
0$
b0000%
0&
0'
0(
0)
$end
#1
1!
#2
0!
#3
1!
#4
0!
#5
1!
#6
0!
#7
1!
#8
0!
#9
1!
#10
0!
#11
1!
#12
0!
#13
1!
#14
0!
#15
1!
#16
0!
#17
1!
#18
0!
#19
1!
#20
0!
#21
1!
#22
0!
#23
1!
#24
0!
#25
1!
#26
0!
#27
1!
#28
0!
#29
1!
#30
0!
#31
1!
#32
0!
#33
1!
#34
0!
#35
1!
#36
0!
#37
1!
#38
0!
#39
1!
#40
0!
#41
1!
#42
0!
#43
1!
#44
0!
#45
1!
#46
0!
#47
1!
#48
0!
#49
1!
#50
0!
#51
1!
#52
0!
#53
1!
#54
0!
#55
1!
#56
0!
#57
1!
#58
0!
#59
1!
#60
0!
#61
1!
#62
0!
#63
1!
#64
0!
#65
1!
#66
0!
#67
1!
#68
0!
#69
1!
#70
0!
#71
1!
#72
0!
#73
1!
#74
0!
#75
1!
#76
0!
#77
1!
#78
0!
#79
1!
#80
0!
#81
1!
#82
0!
#83
1!
#84
0!
#85
1!
#86
0!
#87
1!
#88
0!
#89
1!
#90
0!
#91
1!
#92
0!
#93
1!
#94
0!
#95
1!
#96
0!
#97
1!
#98
0!
#99
1!
#100
0!
b0001%
1)
#101
1!
#102
0!
#103
1!
#104
0!
#105
1!
#106
0!
#107
1!
#108
0!
#109
1!
#110
0!
#111
1!
#112
0!
#113
1!
#114
0!
#115
1!
#116
0!
#117
1!
#118
0!
#119
1!
#120
0!
#121
1!
#122
0!
#123
1!
#124
0!
#125
1!
#126
0!
#127
1!
#128
0!
#129
1!
#130
0!
#131
1!
#132
0!
#133
1!
#134
0!
#135
1!
#136
0!
#137
1!
#138
0!
#139
1!
#140
0!
#141
1!
#142
0!
#143
1!
#144
0!
#145
1!
#146
0!
#147
1!
#148
0!
#149
1!
#150
0!
#151
1!
#152
0!
#153
1!
#154
0!
#155
1!
#156
0!
#157
1!
#158
0!
#159
1!
#160
0!
#161
1!
#162
0!
#163
1!
#164
0!
#165
1!
#166
0!
#167
1!
#168
0!
#169
1!
#170
0!
#171
1!
#172
0!
#173
1!
#174
0!
#175
1!
#176
0!
#177
1!
#178
0!
#179
1!
#180
0!
#181
1!
#182
0!
#183
1!
#184
0!
#185
1!
#186
0!
#187
1!
#188
0!
#189
1!
#190
0!
#191
1!
#192
0!
#193
1!
#194
0!
#195
1!
#196
0!
#197
1!
#198
0!
#199
1!
#200
0!
b0010%
1(
0)
#201
1!
#202
0!
#203
1!
#204
0!
#205
1!
#206
0!
#207
1!
#208
0!
#209
1!
#210
0!
#211
1!
#212
0!
#213
1!
#214
0!
#215
1!
#216
0!
#217
1!
#218
0!
#219
1!
#220
0!
#221
1!
#222
0!
#223
1!
#224
0!
#225
1!
#226
0!
#227
1!
#228
0!
#229
1!
#230
0!
#231
1!
#232
0!
#233
1!
#234
0!
#235
1!
#236
0!
#237
1!
#238
0!
#239
1!
#240
0!
#241
1!
#242
0!
#243
1!
#244
0!
#245
1!
#246
0!
#247
1!
#248
0!
#249
1!
#250
0!
#251
1!
#252
0!
#253
1!
#254
0!
#255
1!
#256
0!
#257
1!
#258
0!
#259
1!
#260
0!
#261
1!
#262
0!
#263
1!
#264
0!
#265
1!
#266
0!
#267
1!
#268
0!
#269
1!
#270
0!
#271
1!
#272
0!
#273
1!
#274
0!
#275
1!
#276
0!
#277
1!
#278
0!
#279
1!
#280
0!
#281
1!
#282
0!
#283
1!
#284
0!
#285
1!
#286
0!
#287
1!
#288
0!
#289
1!
#290
0!
#291
1!
#292
0!
#293
1!
#294
0!
#295
1!
#296
0!
#297
1!
#298
0!
#299
1!
#300
0!
b0011%
1)
#301
1!
#302
0!
#303
1!
#304
0!
#305
1!
#306
0!
#307
1!
#308
0!
#309
1!
#310
0!
#311
1!
#312
0!
#313
1!
#314
0!
#315
1!
#316
0!
#317
1!
#318
0!
#319
1!
#320
0!
#321
1!
#322
0!
#323
1!
#324
0!
#325
1!
#326
0!
#327
1!
#328
0!
#329
1!
#330
0!
#331
1!
#332
0!
#333
1!
#334
0!
#335
1!
#336
0!
#337
1!
#338
0!
#339
1!
#340
0!
#341
1!
#342
0!
#343
1!
#344
0!
#345
1!
#346
0!
#347
1!
#348
0!
#349
1!
#350
0!
#351
1!
#352
0!
#353
1!
#354
0!
#355
1!
#356
0!
#357
1!
#358
0!
#359
1!
#360
0!
#361
1!
#362
0!
#363
1!
#364
0!
#365
1!
#366
0!
#367
1!
#368
0!
#369
1!
#370
0!
#371
1!
#372
0!
#373
1!
#374
0!
#375
1!
#376
0!
#377
1!
#378
0!
#379
1!
#380
0!
#381
1!
#382
0!
#383
1!
#384
0!
#385
1!
#386
0!
#387
1!
#388
0!
#389
1!
#390
0!
#391
1!
#392
0!
#393
1!
#394
0!
#395
1!
#396
0!
#397
1!
#398
0!
#399
1!
#400
0!
b0100%
1'
0(
0)
#401
1!
#402
0!
#403
1!
#404
0!
#405
1!
#406
0!
#407
1!
#408
0!
#409
1!
#410
0!
#411
1!
#412
0!
#413
1!
#414
0!
#415
1!
#416
0!
#417
1!
#418
0!
#419
1!
#420
0!
#421
1!
#422
0!
#423
1!
#424
0!
#425
1!
#426
0!
#427
1!
#428
0!
#429
1!
#430
0!
#431
1!
#432
0!
#433
1!
#434
0!
#435
1!
#436
0!
#437
1!
#438
0!
#439
1!
#440
0!
#441
1!
#442
0!
#443
1!
#444
0!
#445
1!
#446
0!
#447
1!
#448
0!
#449
1!
#450
0!
#451
1!
#452
0!
#453
1!
#454
0!
#455
1!
#456
0!
#457
1!
#458
0!
#459
1!
#460
0!
#461
1!
#462
0!
#463
1!
#464
0!
#465
1!
#466
0!
#467
1!
#468
0!
#469
1!
#470
0!
#471
1!
#472
0!
#473
1!
#474
0!
#475
1!
#476
0!
#477
1!
#478
0!
#479
1!
#480
0!
#481
1!
#482
0!
#483
1!
#484
0!
#485
1!
#486
0!
#487
1!
#488
0!
#489
1!
#490
0!
#491
1!
#492
0!
#493
1!
#494
0!
#495
1!
#496
0!
#497
1!
#498
0!
#499
1!
#500
0!
b0101%
1)
#501
1!
#502
0!
#503
1!
#504
0!
#505
1!
#506
0!
#507
1!
#508
0!
#509
1!
#510
0!
#511
1!
#512
0!
#513
1!
#514
0!
#515
1!
#516
0!
#517
1!
#518
0!
#519
1!
#520
0!
#521
1!
#522
0!
#523
1!
#524
0!
#525
1!
#526
0!
#527
1!
#528
0!
#529
1!
#530
0!
#531
1!
#532
0!
#533
1!
#534
0!
#535
1!
#536
0!
#537
1!
#538
0!
#539
1!
#540
0!
#541
1!
#542
0!
#543
1!
#544
0!
#545
1!
#546
0!
#547
1!
#548
0!
#549
1!
#550
0!
#551
1!
#552
0!
#553
1!
#554
0!
#555
1!
#556
0!
#557
1!
#558
0!
#559
1!
#560
0!
#561
1!
#562
0!
#563
1!
#564
0!
#565
1!
#566
0!
#567
1!
#568
0!
#569
1!
#570
0!
#571
1!
#572
0!
#573
1!
#574
0!
#575
1!
#576
0!
#577
1!
#578
0!
#579
1!
#580
0!
#581
1!
#582
0!
#583
1!
#584
0!
#585
1!
#586
0!
#587
1!
#588
0!
#589
1!
#590
0!
#591
1!
#592
0!
#593
1!
#594
0!
#595
1!
#596
0!
#597
1!
#598
0!
#599
1!
#600
0!
b0110%
1(
0)
#601
1!
#602
0!
#603
1!
#604
0!
#605
1!
#606
0!
#607
1!
#608
0!
#609
1!
#610
0!
#611
1!
#612
0!
#613
1!
#614
0!
#615
1!
#616
0!
#617
1!
#618
0!
#619
1!
#620
0!
#621
1!
#622
0!
#623
1!
#624
0!
#625
1!
#626
0!
#627
1!
#628
0!
#629
1!
#630
0!
#631
1!
#632
0!
#633
1!
#634
0!
#635
1!
#636
0!
#637
1!
#638
0!
#639
1!
#640
0!
#641
1!
#642
0!
#643
1!
#644
0!
#645
1!
#646
0!
#647
1!
#648
0!
#649
1!
#650
0!
#651
1!
#652
0!
#653
1!
#654
0!
#655
1!
#656
0!
#657
1!
#658
0!
#659
1!
#660
0!
#661
1!
#662
0!
#663
1!
#664
0!
#665
1!
#666
0!
#667
1!
#668
0!
#669
1!
#670
0!
#671
1!
#672
0!
#673
1!
#674
0!
#675
1!
#676
0!
#677
1!
#678
0!
#679
1!
#680
0!
#681
1!
#682
0!
#683
1!
#684
0!
#685
1!
#686
0!
#687
1!
#688
0!
#689
1!
#690
0!
#691
1!
#692
0!
#693
1!
#694
0!
#695
1!
#696
0!
#697
1!
#698
0!
#699
1!
#700
0!
b0111%
1)
