pin_test/merge.vcd
$date
	Wed Jan  2 13:52:07 2019
$end
$version
	ModelSim Version 10.1c
$end
$timescale
	1ps
$end
$scope module _tb $end
$var reg 1 ! pin_in_ref $end
$var reg 1 " en_output_ref $end
$var reg 1 # data_in_ref $end
$var wire 1 $ pin_out_ref $end
$var wire 1 % data_out_ref $end
$var wire 1 & tri_inout_ref $end
$var reg 1 ' in_tri_inout_ref $end
$var reg 1 ( pin_in $end
$var reg 1 ) en_output $end
$var reg 1 * data_in $end
$var wire 1 + pin_out $end
$var wire 1 , data_out $end
$var wire 1 - tri_inout $end
$var reg 1 . in_tri_inout $end
$var wire 1 / error $end
$upscope $end
$enddefinitions $end
#0
$dumpvars
0!
0"
0#
0$
0%
0&
0'
0(
0)
0*
0+
0,
0-
0.
0/
$end
#1
1!
1$
1(
1+
#2
0!
0$
1%
1&
1'
0(
0+
1,
1-
1.
#3
1!
1$
0%
0&
0'
1(
1+
0,
0-
0.
#4
0!
0$
1%
1&
1'
0(
0+
1,
1-
1.
#5
1!
1$
1(
1+
#6
0!
0$
0%
0&
0'
0(
0+
0,
0-
0.
#7
1!
1$
1%
1&
1'
1(
1+
1,
1-
1.
#8
0!
1"
0$
0%
0&
0(
1)
0+
0,
z-
1/
#9
1!
1#
1$
1&
1(
1*
1+
0-
#10
0!
0#
0$
0&
0(
0*
0+
1-
#11
1!
1$
1(
1+
0-
0/
#12
0!
1#
0$
1&
0(
1*
0+
1-
#13
1!
0#
1$
0&
1(
0*
1+
0-
#14
0!
1#
0$
1&
0(
1*
0+
1-
#15
1!
1$
1(
1+
#16
0!
0$
0(
0+
#17
1!
1$
1(
1+
#18
0!
0$
0(
0+
#19
1!
1$
1(
1+
#20
0!
0$
0(
0+
$dumpoff
