pin_test/test_result.vcd
$date
	Thu Jul 26 19:58:12 2018
$end
$version
	ModelSim Version 10.1c
$end
$timescale
	1us
$end
$scope module pin_test_tb $end
$var reg 1 ! pin_in $end
$var reg 1 # data_in $end
$var reg 1 " en_output $end
$var wire 1 % data_out $end
$var wire 1 $ pin_out $end
$var wire 1 ' in_tri_inout $end
$var wire 1 & tri_inout $end
$upscope $end
$enddefinitions $end
#0
$dumpvars
0!
0&
0"
0$
0#
0%
$end
#1
1!
1$
#2
0!
1%
1&
0$
#3
1!
0%
0&
1$
#4
0!
1%
1&
0$
#5
1!
1$
#6
0!
0%
0&
0$
#7
1!
1%
1&
1$
