backup/test_project_bak_0925/LX200/mul1.vcd
$date
	Thu May 18 12:03:48 2017
$end
$version
	ModelSim Version 10.1c
$end
$timescale
	1ps
$end
$scope module tb_lx200_top $end
$var reg 4 ! ai [3:0] $end
$var reg 4 " bi [3:0] $end
$var reg 1 # sr $end
$var reg 1 $ ce $end
$var reg 1 % clk $end
$var wire 1 & ao [3] $end
$var wire 1 ' ao [2] $end
$var wire 1 ( ao [1] $end
$var wire 1 ) ao [0] $end
$var wire 1 * bo [3] $end
$var wire 1 + bo [2] $end
$var wire 1 , bo [1] $end
$var wire 1 - bo [0] $end
$scope begin test $end
$var integer 32 . i $end
$upscope $end
$upscope $end
$enddefinitions $end
#0
$dumpvars
b0 !
b0 "
0#
0$
0%
b0 .
0)
0(
0'
0&
0-
1,
0+
1*
$end
#1000000
1%
#2000000
0%
#3000000
1%
#4000000
0%
#5000000
1%
#6000000
0%
#7000000
1%
#8000000
0%
#9000000
1%
#10000000
0%
#11000000
1%
#12000000
0%
#13000000
1%
#14000000
0%
#15000000
1%
#16000000
0%
#17000000
1%
#18000000
0%
#19000000
1%
#20000000
0%
#21000000
1%
#22000000
0%
#23000000
1%
#24000000
0%
#25000000
1%
#26000000
0%
#27000000
1%
#28000000
0%
#29000000
1%
#30000000
0%
#31000000
1%
#32000000
0%
#33000000
1%
#34000000
0%
#35000000
1%
#36000000
0%
#37000000
1%
#38000000
0%
#39000000
1%
#40000000
0%
#41000000
1%
#42000000
0%
#43000000
1%
#44000000
0%
#45000000
1%
#46000000
0%
#47000000
1%
#48000000
0%
#49000000
1%
#50000000
0%
#51000000
1%
#52000000
0%
#53000000
1%
#54000000
0%
#55000000
1%
#56000000
0%
#57000000
1%
#58000000
0%
#59000000
1%
#60000000
0%
#61000000
1%
#62000000
0%
#63000000
1%
#64000000
0%
#65000000
1%
#66000000
0%
#67000000
1%
#68000000
0%
#69000000
1%
#70000000
0%
#71000000
1%
#72000000
0%
#73000000
1%
#74000000
0%
#75000000
1%
#76000000
0%
#77000000
1%
#78000000
0%
#79000000
1%
#80000000
0%
#81000000
1%
#82000000
0%
#83000000
1%
#84000000
0%
#85000000
1%
#86000000
0%
#87000000
1%
#88000000
0%
#89000000
1%
#90000000
0%
#91000000
1%
#92000000
0%
#93000000
1%
#94000000
0%
#95000000
1%
#96000000
0%
#97000000
1%
#98000000
0%
#99000000
1%
#100000000
b1 !
b1 .
0%
1)
#101000000
1%
#102000000
0%
#103000000
1%
#104000000
0%
#105000000
1%
#106000000
0%
#107000000
1%
#108000000
0%
#109000000
1%
#110000000
0%
#111000000
1%
#112000000
0%
#113000000
1%
#114000000
0%
#115000000
1%
#116000000
0%
#117000000
1%
#118000000
0%
#119000000
1%
#120000000
0%
#121000000
1%
#122000000
0%
#123000000
1%
#124000000
0%
#125000000
1%
#126000000
0%
#127000000
1%
#128000000
0%
#129000000
1%
#130000000
0%
#131000000
1%
#132000000
0%
#133000000
1%
#134000000
0%
#135000000
1%
#136000000
0%
#137000000
1%
#138000000
0%
#139000000
1%
#140000000
0%
#141000000
1%
#142000000
0%
#143000000
1%
#144000000
0%
#145000000
1%
#146000000
0%
#147000000
1%
#148000000
0%
#149000000
1%
#150000000
0%
#151000000
1%
#152000000
0%
#153000000
1%
#154000000
0%
#155000000
1%
#156000000
0%
#157000000
1%
#158000000
0%
#159000000
1%
#160000000
0%
#161000000
1%
#162000000
0%
#163000000
1%
#164000000
0%
#165000000
1%
#166000000
0%
#167000000
1%
#168000000
0%
#169000000
1%
#170000000
0%
#171000000
1%
#172000000
0%
#173000000
1%
#174000000
0%
#175000000
1%
#176000000
0%
#177000000
1%
#178000000
0%
#179000000
1%
#180000000
0%
#181000000
1%
#182000000
0%
#183000000
1%
#184000000
0%
#185000000
1%
#186000000
0%
#187000000
1%
#188000000
0%
#189000000
1%
#190000000
0%
#191000000
1%
#192000000
0%
#193000000
1%
#194000000
0%
#195000000
1%
#196000000
0%
#197000000
1%
#198000000
0%
#199000000
1%
#200000000
b10 !
b10 .
0%
1(
0)
#201000000
1%
#202000000
0%
#203000000
1%
#204000000
0%
#205000000
1%
#206000000
0%
#207000000
1%
#208000000
0%
#209000000
1%
#210000000
0%
#211000000
1%
#212000000
0%
#213000000
1%
#214000000
0%
#215000000
1%
#216000000
0%
#217000000
1%
#218000000
0%
#219000000
1%
#220000000
0%
#221000000
1%
#222000000
0%
#223000000
1%
#224000000
0%
#225000000
1%
#226000000
0%
#227000000
1%
#228000000
0%
#229000000
1%
#230000000
0%
#231000000
1%
#232000000
0%
#233000000
1%
#234000000
0%
#235000000
1%
#236000000
0%
#237000000
1%
#238000000
0%
#239000000
1%
#240000000
0%
#241000000
1%
#242000000
0%
#243000000
1%
#244000000
0%
#245000000
1%
#246000000
0%
#247000000
1%
#248000000
0%
#249000000
1%
#250000000
0%
#251000000
1%
#252000000
0%
#253000000
1%
#254000000
0%
#255000000
1%
#256000000
0%
#257000000
1%
#258000000
0%
#259000000
1%
#260000000
0%
#261000000
1%
#262000000
0%
#263000000
1%
#264000000
0%
#265000000
1%
#266000000
0%
#267000000
1%
#268000000
0%
#269000000
1%
#270000000
0%
#271000000
1%
#272000000
0%
#273000000
1%
#274000000
0%
#275000000
1%
#276000000
0%
#277000000
1%
#278000000
0%
#279000000
1%
#280000000
0%
#281000000
1%
#282000000
0%
#283000000
1%
#284000000
0%
#285000000
1%
#286000000
0%
#287000000
1%
#288000000
0%
#289000000
1%
#290000000
0%
#291000000
1%
#292000000
0%
#293000000
1%
#294000000
0%
#295000000
1%
#296000000
0%
#297000000
1%
#298000000
0%
#299000000
1%
#300000000
b11 !
b11 .
0%
1)
#301000000
1%
#302000000
0%
#303000000
1%
#304000000
0%
#305000000
1%
#306000000
0%
#307000000
1%
#308000000
0%
#309000000
1%
#310000000
0%
#311000000
1%
#312000000
0%
#313000000
1%
#314000000
0%
#315000000
1%
#316000000
0%
#317000000
1%
#318000000
0%
#319000000
1%
#320000000
0%
#321000000
1%
#322000000
0%
#323000000
1%
#324000000
0%
#325000000
1%
#326000000
0%
#327000000
1%
#328000000
0%
#329000000
1%
#330000000
0%
#331000000
1%
#332000000
0%
#333000000
1%
#334000000
0%
#335000000
1%
#336000000
0%
#337000000
1%
#338000000
0%
#339000000
1%
#340000000
0%
#341000000
1%
#342000000
0%
#343000000
1%
#344000000
0%
#345000000
1%
#346000000
0%
#347000000
1%
#348000000
0%
#349000000
1%
#350000000
0%
#351000000
1%
#352000000
0%
#353000000
1%
#354000000
0%
#355000000
1%
#356000000
0%
#357000000
1%
#358000000
0%
#359000000
1%
#360000000
0%
#361000000
1%
#362000000
0%
#363000000
1%
#364000000
0%
#365000000
1%
#366000000
0%
#367000000
1%
#368000000
0%
#369000000
1%
#370000000
0%
#371000000
1%
#372000000
0%
#373000000
1%
#374000000
0%
#375000000
1%
#376000000
0%
#377000000
1%
#378000000
0%
#379000000
1%
#380000000
0%
#381000000
1%
#382000000
0%
#383000000
1%
#384000000
0%
#385000000
1%
#386000000
0%
#387000000
1%
#388000000
0%
#389000000
1%
#390000000
0%
#391000000
1%
#392000000
0%
#393000000
1%
#394000000
0%
#395000000
1%
#396000000
0%
#397000000
1%
#398000000
0%
#399000000
1%
#400000000
b100 !
b100 .
0%
0(
0)
1'
#401000000
1%
#402000000
0%
#403000000
1%
#404000000
0%
#405000000
1%
#406000000
0%
#407000000
1%
#408000000
0%
#409000000
1%
#410000000
0%
#411000000
1%
#412000000
0%
#413000000
1%
#414000000
0%
#415000000
1%
#416000000
0%
#417000000
1%
#418000000
0%
#419000000
1%
#420000000
0%
#421000000
1%
#422000000
0%
#423000000
1%
#424000000
0%
#425000000
1%
#426000000
0%
#427000000
1%
#428000000
0%
#429000000
1%
#430000000
0%
#431000000
1%
#432000000
0%
#433000000
1%
#434000000
0%
#435000000
1%
#436000000
0%
#437000000
1%
#438000000
0%
#439000000
1%
#440000000
0%
#441000000
1%
#442000000
0%
#443000000
1%
#444000000
0%
#445000000
1%
#446000000
0%
#447000000
1%
#448000000
0%
#449000000
1%
#450000000
0%
#451000000
1%
#452000000
0%
#453000000
1%
#454000000
0%
#455000000
1%
#456000000
0%
#457000000
1%
#458000000
0%
#459000000
1%
#460000000
0%
#461000000
1%
#462000000
0%
#463000000
1%
#464000000
0%
#465000000
1%
#466000000
0%
#467000000
1%
#468000000
0%
#469000000
1%
#470000000
0%
#471000000
1%
#472000000
0%
#473000000
1%
#474000000
0%
#475000000
1%
#476000000
0%
#477000000
1%
#478000000
0%
#479000000
1%
#480000000
0%
#481000000
1%
#482000000
0%
#483000000
1%
#484000000
0%
#485000000
1%
#486000000
0%
#487000000
1%
#488000000
0%
#489000000
1%
#490000000
0%
#491000000
1%
#492000000
0%
#493000000
1%
#494000000
0%
#495000000
1%
#496000000
0%
#497000000
1%
#498000000
0%
#499000000
1%
#500000000
b101 !
b101 .
0%
1)
#501000000
1%
#502000000
0%
#503000000
1%
#504000000
0%
#505000000
1%
#506000000
0%
#507000000
1%
#508000000
0%
#509000000
1%
#510000000
0%
#511000000
1%
#512000000
0%
#513000000
1%
#514000000
0%
#515000000
1%
#516000000
0%
#517000000
1%
#518000000
0%
#519000000
1%
#520000000
0%
#521000000
1%
#522000000
0%
#523000000
1%
#524000000
0%
#525000000
1%
#526000000
0%
#527000000
1%
#528000000
0%
#529000000
1%
#530000000
0%
#531000000
1%
#532000000
0%
#533000000
1%
#534000000
0%
#535000000
1%
#536000000
0%
#537000000
1%
#538000000
0%
#539000000
1%
#540000000
0%
#541000000
1%
#542000000
0%
#543000000
1%
#544000000
0%
#545000000
1%
#546000000
0%
#547000000
1%
#548000000
0%
#549000000
1%
#550000000
0%
#551000000
1%
#552000000
0%
#553000000
1%
#554000000
0%
#555000000
1%
#556000000
0%
#557000000
1%
#558000000
0%
#559000000
1%
#560000000
0%
#561000000
1%
#562000000
0%
#563000000
1%
#564000000
0%
#565000000
1%
#566000000
0%
#567000000
1%
#568000000
0%
#569000000
1%
#570000000
0%
#571000000
1%
#572000000
0%
#573000000
1%
#574000000
0%
#575000000
1%
#576000000
0%
#577000000
1%
#578000000
0%
#579000000
1%
#580000000
0%
#581000000
1%
#582000000
0%
#583000000
1%
#584000000
0%
#585000000
1%
#586000000
0%
#587000000
1%
#588000000
0%
#589000000
1%
#590000000
0%
#591000000
1%
#592000000
0%
#593000000
1%
#594000000
0%
#595000000
1%
#596000000
0%
#597000000
1%
#598000000
0%
#599000000
1%
#600000000
b110 !
b110 .
0%
1(
0)
#601000000
1%
#602000000
0%
#603000000
1%
#604000000
0%
#605000000
1%
#606000000
0%
#607000000
1%
#608000000
0%
#609000000
1%
#610000000
0%
#611000000
1%
#612000000
0%
#613000000
1%
#614000000
0%
#615000000
1%
#616000000
0%
#617000000
1%
#618000000
0%
#619000000
1%
#620000000
0%
#621000000
1%
#622000000
0%
#623000000
1%
#624000000
0%
#625000000
1%
#626000000
0%
#627000000
1%
#628000000
0%
#629000000
1%
#630000000
0%
#631000000
1%
#632000000
0%
#633000000
1%
#634000000
0%
#635000000
1%
#636000000
0%
#637000000
1%
#638000000
0%
#639000000
1%
#640000000
0%
#641000000
1%
#642000000
0%
#643000000
1%
#644000000
0%
#645000000
1%
#646000000
0%
#647000000
1%
#648000000
0%
#649000000
1%
#650000000
0%
#651000000
1%
#652000000
0%
#653000000
1%
#654000000
0%
#655000000
1%
#656000000
0%
#657000000
1%
#658000000
0%
#659000000
1%
#660000000
0%
#661000000
1%
#662000000
0%
#663000000
1%
#664000000
0%
#665000000
1%
#666000000
0%
#667000000
1%
#668000000
0%
#669000000
1%
#670000000
0%
#671000000
1%
#672000000
0%
#673000000
1%
#674000000
0%
#675000000
1%
#676000000
0%
#677000000
1%
#678000000
0%
#679000000
1%
#680000000
0%
#681000000
1%
#682000000
0%
#683000000
1%
#684000000
0%
#685000000
1%
#686000000
0%
#687000000
1%
#688000000
0%
#689000000
1%
#690000000
0%
#691000000
1%
#692000000
0%
#693000000
1%
#694000000
0%
#695000000
1%
#696000000
0%
#697000000
1%
#698000000
0%
#699000000
1%
#700000000
b111 !
b111 .
0%
1)
